{
  "archives": {
    "windows_amd64": {
      "hashes": [
        "h1:YLsmK5PndsdNh7s97qax86+ccOMWxHzmxg6BgFiDuPE="
      ],
      "url": "terraform-provider-azurerm_3.51.0_windows_amd64.zip"
    }
  }
}